Tidy data structure and calendar-based visualisation to support exploration of temporal-context data
…
```
#> # A tibble: 8,760 x 5
#>    Time Count Date       .Time .Count
#> * <int> <int> <date>     <dbl>  <dbl>
#> 1     0  1335 2017-01-01 0.258  0.986
#> 2     1   463 2017-01-01 0.260  0.972
#> 3     2   219 2017-01-01 0.261  0.968
#> 4     3   122 2017-01-01 0.263  0.967
#> 5     4    21 2017-01-01 0.264  0.965
#> 6     5    28 2017-01-01 0.266  0.965
#> # ... with 8,754 more rows
```
…
